Prepare dependent variable
…
all.equal(hgts$count, as.integer(hgts$count))

## [1] TRUE

all.equal(hgts$hgt, as.integer(hgts$hgt))

## [1] "Mean relative difference: 0.001778366"

slice(hgts, which(hgts$hgt != as.integer(hgts$hgt)))

## # A tibble: 292 x 4
##    file                 count   hgt hgt_assume
##    <chr>                <dbl> <dbl>      <dbl>
##  1 Larix/indre-bjotveit     1   110          0
##  2 Larix/indre-bjotveit     1   220          0
##  3 Larix/indre-bjotveit     1   110          0
##  4 Larix/indre-bjotveit     1   110          0
##  5 Larix/indre-bjotveit     1   110          0
##  6 Larix/indre-bjotveit     1   115          0
##  7 Larix/indre-bjotveit     1   410          0
##  8 Larix/indre-bjotveit     1   110          0
##  9 Larix/indre-bjotveit     1   110          0
## 10 Larix/indre-bjotveit     1   110          0
## # ... with 282 more rows
…
