Modeling relative establishment probability
…
filter(IV, T4 > 0.5) %>%
  select(species, are, any_of(types$type)) %>% 
  group_split(species)

## [[1]]
## Simple feature collection with 6177 features and 37 fields
## Geometry type: POLYGON
## Dimension:     XY
## Bounding box:  xmin: -47824 ymin: 6521874 xmax: 419071 ymax: 7303438
## Projected CRS: ETRS89 / UTM zone 33N
## # A tibble: 6,177 x 38
##    species   are    T1    T2    T3    T4    T6   T12   T13   T16   T17   T18
##    <chr>   <dbl> <dbl> <dbl> <dbl> <dbl> <dbl> <dbl> <dbl> <dbl> <dbl> <dbl>
##  1 Larix   1         0     0     0 0.829     0     0     0     0     0     0
##  2 Larix   0.984     0     0     0 0.654     0     0     0     0     0     0
##  3 Larix   1         0     0     0 0.673     0     0     0     0     0     0
##  4 Larix   1         0     0     0 1         0     0     0     0     0     0
##  5 Larix   1         0     0     0 1         0     0     0     0     0     0
##  6 Larix   1         0     0     0 0.634     0     0     0     0     0     0
##  7 Larix   1         0     0     0 0.913     0     0     0     0     0     0
##  8 Larix   1         0     0     0 0.953     0     0     0     0     0     0
##  9 Larix   1         0     0     0 0.855     0     0     0     0     0     0
## 10 Larix   1         0     0     0 1         0     0     0     0     0     0
## # ... with 6,167 more rows, and 26 more variables: T21 <dbl>, T24 <dbl>,
## #   T27 <dbl>, T29 <dbl>, T30 <dbl>, T31 <dbl>, T32 <dbl>, T33 <dbl>,
## #   T34 <dbl>, artificial <dbl>, T36 <dbl>, T40 <dbl>, T41 <dbl>, T42 <dbl>,
## #   T44 <dbl>, T45 <dbl>, V1 <dbl>, V2 <dbl>, V3 <dbl>, V4 <dbl>, V8 <dbl>,
## #   V9 <dbl>, V10 <dbl>, V12 <dbl>, V13 <dbl>, geometry <POLYGON [m]>
## 
## [[2]]
## Simple feature collection with 11891 features and 37 fields
## Geometry type: POLYGON
## Dimension:     XY
## Bounding box:  xmin: -36818 ymin: 6519648 xmax: 668909 ymax: 7695582
## Projected CRS: ETRS89 / UTM zone 33N
## # A tibble: 11,891 x 38
##    species   are    T1    T2    T3    T4    T6   T12   T13   T16   T17   T18
##    <chr>   <dbl> <dbl> <dbl> <dbl> <dbl> <dbl> <dbl> <dbl> <dbl> <dbl> <dbl>
##  1 P.abies 0.578     0     0     0 0.578     0     0     0     0     0     0
##  2 P.abies 0.853     0     0     0 0.814     0     0     0     0     0     0
##  3 P.abies 0.803     0     0     0 0.644     0     0     0     0     0     0
##  4 P.abies 0.538     0     0     0 0.509     0     0     0     0     0     0
##  5 P.abies 0.744     0     0     0 0.739     0     0     0     0     0     0
##  6 P.abies 0.836     0     0     0 0.836     0     0     0     0     0     0
##  7 P.abies 0.927     0     0     0 0.927     0     0     0     0     0     0
##  8 P.abies 0.996     0     0     0 0.996     0     0     0     0     0     0
##  9 P.abies 1         0     0     0 0.908     0     0     0     0     0     0
## 10 P.abies 0.78      0     0     0 0.606     0     0     0     0     0     0
## # ... with 11,881 more rows, and 26 more variables: T21 <dbl>, T24 <dbl>,
## #   T27 <dbl>, T29 <dbl>, T30 <dbl>, T31 <dbl>, T32 <dbl>, T33 <dbl>,
## #   T34 <dbl>, artificial <dbl>, T36 <dbl>, T40 <dbl>, T41 <dbl>, T42 <dbl>,
## #   T44 <dbl>, T45 <dbl>, V1 <dbl>, V2 <dbl>, V3 <dbl>, V4 <dbl>, V8 <dbl>,
## #   V9 <dbl>, V10 <dbl>, V12 <dbl>, V13 <dbl>, geometry <POLYGON [m]>
## 
## [[3]]
## Simple feature collection with 12502 features and 37 fields
## Geometry type: POLYGON
## Dimension:     XY
## Bounding box:  xmin: -58708 ymin: 6526069 xmax: 647323 ymax: 7731975
## Projected CRS: ETRS89 / UTM zone 33N
## # A tibble: 12,502 x 38
##    species       are    T1    T2    T3    T4    T6   T12   T13   T16   T17   T18
##    <chr>       <dbl> <dbl> <dbl> <dbl> <dbl> <dbl> <dbl> <dbl> <dbl> <dbl> <dbl>
##  1 P.sitchens~ 1         0     0     0 1         0     0     0     0     0     0
##  2 P.sitchens~ 1         0     0     0 1         0     0     0     0     0     0
##  3 P.sitchens~ 1         0     0     0 0.976     0     0     0     0     0     0
##  4 P.sitchens~ 1         0     0     0 1         0     0     0     0     0     0
##  5 P.sitchens~ 1         0     0     0 1         0     0     0     0     0     0
##  6 P.sitchens~ 1         0     0     0 1         0     0     0     0     0     0
##  7 P.sitchens~ 1         0     0     0 0.669     0     0     0     0     0     0
##  8 P.sitchens~ 1         0     0     0 0.602     0     0     0     0     0     0
##  9 P.sitchens~ 0.942     0     0     0 0.942     0     0     0     0     0     0
## 10 P.sitchens~ 0.942     0     0     0 0.942     0     0     0     0     0     0
## # ... with 12,492 more rows, and 26 more variables: T21 <dbl>, T24 <dbl>,
## #   T27 <dbl>, T29 <dbl>, T30 <dbl>, T31 <dbl>, T32 <dbl>, T33 <dbl>,
## #   T34 <dbl>, artificial <dbl>, T36 <dbl>, T40 <dbl>, T41 <dbl>, T42 <dbl>,
## #   T44 <dbl>, T45 <dbl>, V1 <dbl>, V2 <dbl>, V3 <dbl>, V4 <dbl>, V8 <dbl>,
## #   V9 <dbl>, V10 <dbl>, V12 <dbl>, V13 <dbl>, geometry <POLYGON [m]>
…
